Fantasy Football Data
…
Schedule

tidy_schedule(scoringPeriodId = 1)
#> # A tibble: 68 × 7
#>    seasonId matchupPeriodId matchupId teamId abbrev opponent isHome
#>       <int>           <int>     <int>  <int> <fct>  <fct>    <lgl> 
#>  1     2022               1         1      1 AUS    CHI      TRUE  
#>  2     2022               1         1      3 CHI    AUS      FALSE 
#>  3     2022               1         2      2 BOS    DEN      TRUE  
#>  4     2022               1         2      4 DEN    BOS      FALSE 
#>  5     2022               2         3      3 CHI    DEN      TRUE  
#>  6     2022               2         3      4 DEN    CHI      FALSE 
#>  7     2022               2         4      1 AUS    BOS      TRUE  
#>  8     2022               2         4      2 BOS    AUS      FALSE 
#>  9     2022               3         5      4 DEN    AUS      TRUE  
#> 10     2022               3         5      1 AUS    DEN      FALSE 
#> # … with 58 more rows
…
Draft Recap

draft_recap()
#> # A tibble: 64 × 15
#>    seasonId autoDr…¹ bidAm…² pickId keeper lineu…³ nomin…⁴ overa…⁵ playe…⁶ reser…⁷ roundId
#>       <int>    <int>   <int>  <int> <lgl>  <fct>   <fct>     <int>   <int> <lgl>     <int>
#>  1     2022        7      NA      1 FALSE  RB      <NA>          1 4242335 TRUE          1
#>  2     2022        7      NA      2 FALSE  RB      <NA>          2 3117251 TRUE          1
#>  3     2022        7      NA      3 FALSE  WR      <NA>          3 2977187 TRUE          1
#>  4     2022        7      NA      4 FALSE  RB      <NA>          4 3068267 TRUE          1
#>  5     2022        7      NA      5 FALSE  WR      <NA>          5 4262921 TRUE          2
#>  6     2022        7      NA      6 FALSE  WR      <NA>          6 4362628 TRUE          2
#>  7     2022        7      NA      7 FALSE  RB      <NA>          7 3043078 TRUE          2
#>  8     2022        7      NA      8 FALSE  RB      <NA>          8 4241457 TRUE          2
#>  9     2022        7      NA      9 FALSE  RB      <NA>          9 3116593 FALSE         3
#> 10     2022        7      NA     10 FALSE  RB      <NA>         10 3054850 FALSE         3
#> # … with 54 more rows, 4 more variables: roundPickNumber <int>, teamId <int>,
#> #   abbrev <fct>, tradeLocked <lgl>, and abbreviated variable names ¹​autoDraftTypeId,
#> #   ²​bidAmount, ³​lineupSlot, ⁴​nominatingTeamId, ⁵​overallPickNumber, ⁶​playerId,
#> #   ⁷​reservedForKeeper

Recent Activity

recent_activity(scoringPeriodId = 1)
#> # A tibble: 64 × 14
#>    bidAm…¹ execu…² id    isAct…³ isLea…⁴ isPen…⁵ items proposedDate        scori…⁶ skipT…⁷
#>      <int> <chr>   <chr> <lgl>   <lgl>   <lgl>   <lis> <dttm>                <int> <lgl>  
#>  1       0 EXECUTE 7428… FALSE   FALSE   FALSE   <df>  2022-09-10 19:03:18       1 FALSE  
#>  2       0 EXECUTE 924e… FALSE   FALSE   FALSE   <df>  2022-09-10 19:03:18       1 FALSE  
#>  3       0 EXECUTE 1527… FALSE   FALSE   FALSE   <df>  2022-09-10 19:03:18       1 FALSE  
#>  4       0 EXECUTE 12f8… FALSE   FALSE   FALSE   <df>  2022-09-10 19:03:18       1 FALSE  
#>  5       0 EXECUTE 8c9c… FALSE   FALSE   FALSE   <df>  2022-09-10 19:03:18       1 FALSE  
#>  6       0 EXECUTE cd06… FALSE   FALSE   FALSE   <df>  2022-09-10 19:03:18       1 FALSE  
#>  7       0 EXECUTE e521… FALSE   FALSE   FALSE   <df>  2022-09-10 19:03:18       1 FALSE  
#>  8       0 EXECUTE 66aa… FALSE   FALSE   FALSE   <df>  2022-09-10 19:03:18       1 FALSE  
#>  9       0 EXECUTE 81ef… FALSE   FALSE   FALSE   <df>  2022-09-10 19:03:18       1 FALSE  
#> 10       0 EXECUTE deba… FALSE   FALSE   FALSE   <df>  2022-09-10 19:03:18       1 FALSE  
#> # … with 54 more rows, 4 more variables: status <chr>, teamId <int>, type <chr>,
#> #   processDate <dttm>, and abbreviated variable names ¹​bidAmount, ²​executionType,
#> #   ³​isActingAsTeamOwner, ⁴​isLeagueManager, ⁵​isPending, ⁶​scoringPeriodId,
#> #   ⁷​skipTransactionCounters
…
